<?xml version="1.0" encoding="utf-8"?>
<!-- Generator: Adobe Illustrator 16.0.4, SVG Export Plug-In . SVG Version: 6.00 Build 0)  -->
<!DOCTYPE svg PUBLIC "-//W3C//DTD SVG 1.1//EN" "http://www.w3.org/Graphics/SVG/1.1/DTD/svg11.dtd">
<svg version="1.1" id="Layer_1" xmlns="http://www.w3.org/2000/svg" xmlns:xlink="http://www.w3.org/1999/xlink" x="0px" y="0px"
	 width="100px" height="100px" viewBox="-40.5 -40 100 100" enable-background="new -40.5 -40 100 100" xml:space="preserve">
<title>Shape</title>
<desc>Created with Sketch.</desc>
<g id="Page-1">
	<g id="romah24" transform="translate(-1246.000000, -185.000000)">
		<g id="Group-33" transform="translate(911.000000, 172.000000)">
			<g id="Group-20" transform="translate(335.000000, 13.000000)">
				<path id="Shape" d="M54.441,42.607L37.721,25.729c-1.132-1.146-2.638-1.741-4.144-1.741c-1.334,0-2.682,0.479-3.78,1.405
					l-1.17,0.983l-3.789-3.827l0,0c6.058-6.476,9.775-15.224,9.775-24.819C34.613-22.25,18.517-38.5-1.273-38.5
					c-19.795,0-35.887,16.25-35.887,36.229c0,19.984,16.094,36.254,35.887,36.254c8.173,0,15.723-2.782,21.742-7.464l3.659,3.693
					l-0.725,0.629c-1.29,1.088-2.033,2.686-2.091,4.359c-0.038,1.703,0.628,3.319,1.837,4.489l17.718,16.879
					c1.132,1.089,2.581,1.616,4.029,1.616c1.506,0,2.993-0.59,4.148-1.736l5.396-5.468C56.733,48.67,56.733,44.919,54.441,42.607
					L54.441,42.607z M-1.273-32.576c16.586,0,30.021,13.564,30.021,30.306c0,16.742-13.435,30.325-30.021,30.325
					c-16.584,0-30.019-13.583-30.019-30.325C-31.292-19.012-17.857-32.576-1.273-32.576L-1.273-32.576z M44.901,52.267
					L27.179,35.359l6.398-5.448l16.72,16.878L44.901,52.267L44.901,52.267z"/>
			</g>
		</g>
	</g>
</g>
</svg>
